<?xml version="1.0" encoding="utf-8"?>
<!-- Generator: Adobe Illustrator 17.1.0, SVG Export Plug-In . SVG Version: 6.00 Build 0)  -->
<!DOCTYPE svg PUBLIC "-//W3C//DTD SVG 1.1//EN" "http://www.w3.org/Graphics/SVG/1.1/DTD/svg11.dtd">
<svg version="1.1" id="Layer_1" xmlns="http://www.w3.org/2000/svg" xmlns:xlink="http://www.w3.org/1999/xlink" x="0px" y="0px"
	 width="60px" height="60px" viewBox="0 0 60 60" enable-background="new 0 0 60 60" xml:space="preserve">
<g>
	<path fill="#FFFFFF" d="M30,1.5c15.7,0,28.5,12.8,28.5,28.5S45.7,58.5,30,58.5S1.5,45.7,1.5,30S14.3,1.5,30,1.5 M30,0
		C13.4,0,0,13.4,0,30s13.4,30,30,30s30-13.4,30-30S46.6,0,30,0L30,0z"/>
</g>
<g>
	<path fill="#FFFFFF" d="M30,23.5c-5.5,0-9,6.5-9,6.5s3.5,6.5,9,6.5c5.5,0,9-6.5,9-6.5S35.5,23.5,30,23.5z M30,34c-2.2,0-4-1.8-4-4
		c0-2.2,1.8-4,4-4c2.2,0,4,1.8,4,4C34,32.2,32.2,34,30,34z"/>
	<circle fill="#FFFFFF" cx="30" cy="30" r="2.5"/>
</g>
</svg>
