<?xml version="1.0" encoding="utf-8"?>
<!-- Generator: Adobe Illustrator 17.1.0, SVG Export Plug-In . SVG Version: 6.00 Build 0)  -->
<!DOCTYPE svg PUBLIC "-//W3C//DTD SVG 1.1//EN" "http://www.w3.org/Graphics/SVG/1.1/DTD/svg11.dtd">
<svg version="1.1" id="Layer" xmlns="http://www.w3.org/2000/svg" xmlns:xlink="http://www.w3.org/1999/xlink" x="0px" y="0px"
	 width="16px" height="13.1px" viewBox="189 -33.9 16 13.1" enable-background="new 189 -33.9 16 13.1" xml:space="preserve">
<path fill="#708C00" d="M205-32.4c-0.6,0.3-1.3,0.4-1.9,0.5c0.7-0.4,1.2-1,1.4-1.9c-0.7,0.4-1.3,0.7-2.1,0.8c-0.6-0.7-1.4-1-2.4-1
	c-1.9,0-3.3,1.4-3.3,3.3c0,0.3,0,0.5,0.1,0.8c-2.8-0.2-5.2-1.4-6.8-3.5c-0.3,0.5-0.4,1-0.4,1.7c0,1.2,0.6,2.1,1.4,2.7
	c-0.5,0-1-0.2-1.4-0.4l0,0c0,1.6,1.1,2.9,2.6,3.2c-0.3,0.1-0.6,0.1-0.8,0.1c-0.3,0-0.4,0-0.6-0.1c0.4,1.3,1.6,2.3,3,2.3
	c-1.1,0.8-2.5,1.4-4,1.4c-0.3,0.1-0.6,0.1-0.8,0.1c1.4,0.9,3.2,1.5,5.1,1.5c6.1,0,9.3-5,9.3-9.3c0-0.2,0-0.3,0-0.4
	C204-31.1,204.6-31.7,205-32.4z"/>
</svg>
